R for Data Analysis
…
*_hms

*_hm
<br>
<br>
<br>
<br>
<br>
<br>
]

.panel[.panel-name[From individual Date time components]

```
## # A tibble: 336,776 x 5
##     year month   day  hour minute
##    <int> <int> <int> <dbl>  <dbl>
##  1  2013     1     1     5     15
##  2  2013     1     1     5     29
##  3  2013     1     1     5     40
##  4  2013     1     1     5     45
##  5  2013     1     1     6      0
##  6  2013     1     1     5     58
##  7  2013     1     1     6      0
##  8  2013     1     1     6      0
##  9  2013     1     1     6      0
## 10  2013     1     1     6      0
## # ... with 336,766 more rows
```

```r
flights %>% 
  select(year, month, day, hour, minute) %>% 
  mutate(departure = make_datetime(year, month, day, hour, minute),
         departure2 = make_date(year, month, day)) %>% 
  select(departure,departure2,everything())
```

```
## # A tibble: 336,776 x 7
##    departure           departure2  year month   day  hour minute
##    <dttm>              <date>     <int> <int> <int> <dbl>  <dbl>
##  1 2013-01-01 05:15:00 2013-01-01  2013     1     1     5     15
##  2 2013-01-01 05:29:00 2013-01-01  2013     1     1     5     29
##  3 2013-01-01 05:40:00 2013-01-01  2013     1     1     5     40
##  4 2013-01-01 05:45:00 2013-01-01  2013     1     1     5     45
##  5 2013-01-01 06:00:00 2013-01-01  2013     1     1     6      0
##  6 2013-01-01 05:58:00 2013-01-01  2013     1     1     5     58
##  7 2013-01-01 06:00:00 2013-01-01  2013     1     1     6      0
##  8 2013-01-01 06:00:00 2013-01-01  2013     1     1     6      0
##  9 2013-01-01 06:00:00 2013-01-01  2013     1     1     6      0
## 10 2013-01-01 06:00:00 2013-01-01  2013     1     1     6      0
## # ... with 336,766 more rows
```
…
