R for Data Analysis
…
```
## [[1]]
## [1] 2
## 
## [[2]]
## [1] "Ayush"
## 
## [[3]]
## [1]  1 25 53  5
## 
## [[4]]
## # A tibble: 344 x 8
##    species island    bill_length_mm bill_depth_mm
##    <fct>   <fct>              <dbl>         <dbl>
##  1 Adelie  Torgersen           39.1          18.7
##  2 Adelie  Torgersen           39.5          17.4
##  3 Adelie  Torgersen           40.3          18  
##  4 Adelie  Torgersen           NA            NA  
##  5 Adelie  Torgersen           36.7          19.3
##  6 Adelie  Torgersen           39.3          20.6
##  7 Adelie  Torgersen           38.9          17.8
##  8 Adelie  Torgersen           39.2          19.6
##  9 Adelie  Torgersen           34.1          18.1
## 10 Adelie  Torgersen           42            20.2
## # ... with 334 more rows, and 4 more variables:
## #   flipper_length_mm <int>, body_mass_g <int>, sex <fct>,
## #   year <int>
```
…
```r
penguins[penguins$body_mass_g >4000,c("bill_length_mm", "year")]
```

```
## # A tibble: 174 x 2
##    bill_length_mm  year
##             <dbl> <int>
##  1           NA      NA
##  2           39.2  2007
##  3           42    2007
##  4           34.6  2007
##  5           42.5  2007
##  6           46    2007
##  7           39.2  2007
##  8           39.8  2007
##  9           44.1  2007
## 10           39.6  2007
## # ... with 164 more rows
```
…
## [21] 20.277985 24.141062 15.083477 19.885531 32.540259
## [26] 14.045509 10.665103 28.727958  8.760319 21.002740
## [31] 25.351428 21.862788 24.053902 28.687154 24.634812
## [36] 24.472896 17.641941 12.190893 27.239539 31.100161
## [41] 23.712903 28.918942 22.108419 16.055347 29.305591
## [46] 39.312386 24.989925 16.601955 36.967516 30.449296
## 
## [[3]]
##         movie year_release
## 1      Sholay         1975
## 2        LoTR         2001
## 3 Lathe Joshi         2016
## 
## [[4]]
## # A tibble: 344 x 8
##    species island    bill_length_mm bill_depth_mm
##    <fct>   <fct>              <dbl>         <dbl>
##  1 Adelie  Torgersen           39.1          18.7
##  2 Adelie  Torgersen           39.5          17.4
##  3 Adelie  Torgersen           40.3          18  
##  4 Adelie  Torgersen           NA            NA  
##  5 Adelie  Torgersen           36.7          19.3
##  6 Adelie  Torgersen           39.3          20.6
##  7 Adelie  Torgersen           38.9          17.8
##  8 Adelie  Torgersen           39.2          19.6
##  9 Adelie  Torgersen           34.1          18.1
## 10 Adelie  Torgersen           42            20.2
## # ... with 334 more rows, and 4 more variables:
## #   flipper_length_mm <int>, body_mass_g <int>, sex <fct>,
## #   year <int>
```
…
